[
  {
    "description": "Improved the release process.",
    "type": "patch"
  },
  {
    "description": "Internal CI bugfix",
    "type": "patch"
  },
  {
    "description": "Internal CI bugfix",
    "type": "patch"
  }
]